C:\Users\psale\prathyusha-workspace\JUnit_Assignment\src\main\java\JUnitAssign\CharactersTest.java
C:\Users\psale\prathyusha-workspace\JUnit_Assignment\src\main\java\JUnitAssign\DuplicateCharacter.java
C:\Users\psale\prathyusha-workspace\JUnit_Assignment\src\main\java\JUnitAssign\Non_Static_Variable_Access.java
C:\Users\psale\prathyusha-workspace\JUnit_Assignment\src\main\java\JUnitAssign\MultipuleFiles.java
